{
 "captchaResult": "CAPTCHA_NOT_NEEDED",
 "kind": "pagespeedonline#result",
 "id": "https://growup.vn/tin-tuc/ky-thi-jbaa-4kyu-dau-tien-tai-viet-nam-7",
 "responseCode": 200,
 "title": "Kỳ thi JBAA 4kyu đầu tiên tại Việt Nam",
 "ruleGroups": {
  "SPEED": {
   "score": 0
  }
 },
 "loadingExperience": {
  "initial_url": "https://growup.vn/tin-tuc/ky-thi-jbaa-4kyu-dau-tien-tai-viet-nam-7"
 },
 "pageStats": {
  "numberResources": 38,
  "numberHosts": 7,
  "totalRequestBytes": "4200",
  "numberStaticResources": 33,
  "htmlResponseBytes": "87567",
  "overTheWireResponseBytes": "9676580",
  "cssResponseBytes": "471053",
  "imageResponseBytes": "8961744",
  "javascriptResponseBytes": "498965",
  "numberJsResources": 6,
  "numberCssResources": 9,
  "numTotalRoundTrips": 15,
  "numRenderBlockingRoundTrips": 3
 },
 "formattedResults": {
  "locale": "en_US",
  "ruleResults": {
   "AvoidLandingPageRedirects": {
    "localizedRuleName": "Avoid landing page redirects",
    "ruleImpact": 0.0,
    "groups": [
     "SPEED"
    ],
    "summary": {
     "format": "Your page has no redirects. Learn more about {{BEGIN_LINK}}avoiding landing page redirects{{END_LINK}}.",
     "args": [
      {
       "type": "HYPERLINK",
       "key": "LINK",
       "value": "https://developers.google.com/speed/docs/insights/AvoidRedirects"
      }
     ]
    }
   },
   "EnableGzipCompression": {
    "localizedRuleName": "Enable compression",
    "ruleImpact": 45.40660000000001,
    "groups": [
     "SPEED"
    ],
    "summary": {
     "format": "Compressing resources with gzip or deflate can reduce the number of bytes sent over the network."
    },
    "urlBlocks": [
     {
      "header": {
       "format": "{{BEGIN_LINK}}Enable compression{{END_LINK}} for the following resources to reduce their transfer size by {{SIZE_IN_BYTES}} ({{PERCENTAGE}} reduction).",
       "args": [
        {
         "type": "HYPERLINK",
         "key": "LINK",
         "value": "https://developers.google.com/speed/docs/insights/EnableCompression"
        },
        {
         "type": "BYTES",
         "key": "SIZE_IN_BYTES",
         "value": "443.4KiB"
        },
        {
         "type": "PERCENTAGE",
         "key": "PERCENTAGE",
         "value": "81%"
        }
       ]
      },
      "urls": [
       {
        "result": {
         "format": "Compressing {{URL}} could save {{SIZE_IN_BYTES}} ({{PERCENTAGE}} reduction).",
         "args": [
          {
           "type": "URL",
           "key": "URL",
           "value": "https://growup.vn/frontend/css/less-default.min.css"
          },
          {
           "type": "BYTES",
           "key": "SIZE_IN_BYTES",
           "value": "137.5KiB"
          },
          {
           "type": "PERCENTAGE",
           "key": "PERCENTAGE",
           "value": "88%"
          }
         ]
        }
       },
       {
        "result": {
         "format": "Compressing {{URL}} could save {{SIZE_IN_BYTES}} ({{PERCENTAGE}} reduction).",
         "args": [
          {
           "type": "URL",
           "key": "URL",
           "value": "https://growup.vn/frontend/css/bootstrap.min.css"
          },
          {
           "type": "BYTES",
           "key": "SIZE_IN_BYTES",
           "value": "99.1KiB"
          },
          {
           "type": "PERCENTAGE",
           "key": "PERCENTAGE",
           "value": "83%"
          }
         ]
        }
       },
       {
        "result": {
         "format": "Compressing {{URL}} could save {{SIZE_IN_BYTES}} ({{PERCENTAGE}} reduction).",
         "args": [
          {
           "type": "URL",
           "key": "URL",
           "value": "https://growup.vn/frontend/css/less-smart-phone.min.css"
          },
          {
           "type": "BYTES",
           "key": "SIZE_IN_BYTES",
           "value": "69.2KiB"
          },
          {
           "type": "PERCENTAGE",
           "key": "PERCENTAGE",
           "value": "88%"
          }
         ]
        }
       },
       {
        "result": {
         "format": "Compressing {{URL}} could save {{SIZE_IN_BYTES}} ({{PERCENTAGE}} reduction).",
         "args": [
          {
           "type": "URL",
           "key": "URL",
           "value": "https://growup.vn/frontend/js/jquery-1.11.3.min.js"
          },
          {
           "type": "BYTES",
           "key": "SIZE_IN_BYTES",
           "value": "61.2KiB"
          },
          {
           "type": "PERCENTAGE",
           "key": "PERCENTAGE",
           "value": "65%"
          }
         ]
        }
       },
       {
        "result": {
         "format": "Compressing {{URL}} could save {{SIZE_IN_BYTES}} ({{PERCENTAGE}} reduction).",
         "args": [
          {
           "type": "URL",
           "key": "URL",
           "value": "https://growup.vn/frontend/css/common.css"
          },
          {
           "type": "BYTES",
           "key": "SIZE_IN_BYTES",
           "value": "29.8KiB"
          },
          {
           "type": "PERCENTAGE",
           "key": "PERCENTAGE",
           "value": "82%"
          }
         ]
        }
       },
       {
        "result": {
         "format": "Compressing {{URL}} could save {{SIZE_IN_BYTES}} ({{PERCENTAGE}} reduction).",
         "args": [
          {
           "type": "URL",
           "key": "URL",
           "value": "https://growup.vn/frontend/js/bootstrap.min.js"
          },
          {
           "type": "BYTES",
           "key": "SIZE_IN_BYTES",
           "value": "26.5KiB"
          },
          {
           "type": "PERCENTAGE",
           "key": "PERCENTAGE",
           "value": "73%"
          }
         ]
        }
       },
       {
        "result": {
         "format": "Compressing {{URL}} could save {{SIZE_IN_BYTES}} ({{PERCENTAGE}} reduction).",
         "args": [
          {
           "type": "URL",
           "key": "URL",
           "value": "https://growup.vn/frontend/css/jbaa.css"
          },
          {
           "type": "BYTES",
           "key": "SIZE_IN_BYTES",
           "value": "16.1KiB"
          },
          {
           "type": "PERCENTAGE",
           "key": "PERCENTAGE",
           "value": "81%"
          }
         ]
        }
       },
       {
        "result": {
         "format": "Compressing {{URL}} could save {{SIZE_IN_BYTES}} ({{PERCENTAGE}} reduction).",
         "args": [
          {
           "type": "URL",
           "key": "URL",
           "value": "https://growup.vn/frontend/css/style.css"
          },
          {
           "type": "BYTES",
           "key": "SIZE_IN_BYTES",
           "value": "2KiB"
          },
          {
           "type": "PERCENTAGE",
           "key": "PERCENTAGE",
           "value": "67%"
          }
         ]
        }
       },
       {
        "result": {
         "format": "Compressing {{URL}} could save {{SIZE_IN_BYTES}} ({{PERCENTAGE}} reduction).",
         "args": [
          {
           "type": "URL",
           "key": "URL",
           "value": "https://growup.vn/frontend/css/less-common.min.css"
          },
          {
           "type": "BYTES",
           "key": "SIZE_IN_BYTES",
           "value": "2KiB"
          },
          {
           "type": "PERCENTAGE",
           "key": "PERCENTAGE",
           "value": "62%"
          }
         ]
        }
       }
      ]
     }
    ]
   },
   "LeverageBrowserCaching": {
    "localizedRuleName": "Leverage browser caching",
    "ruleImpact": 15.392361111111109,
    "groups": [
     "SPEED"
    ],
    "summary": {
     "format": "Setting an expiry date or a maximum age in the HTTP headers for static resources instructs the browser to load previously downloaded resources from local disk rather than over the network."
    },
    "urlBlocks": [
     {
      "header": {
       "format": "{{BEGIN_LINK}}Leverage browser caching{{END_LINK}} for the following cacheable resources:",
       "args": [
        {
         "type": "HYPERLINK",
         "key": "LINK",
         "value": "https://developers.google.com/speed/docs/insights/LeverageBrowserCaching"
        }
       ]
      },
      "urls": [
       {
        "result": {
         "format": "{{URL}} (expiration not specified)",
         "args": [
          {
           "type": "URL",
           "key": "URL",
           "value": "https://growup.vn/frontend/css/bootstrap.min.css"
          }
         ]
        }
       },
       {
        "result": {
         "format": "{{URL}} (expiration not specified)",
         "args": [
          {
           "type": "URL",
           "key": "URL",
           "value": "https://growup.vn/frontend/css/common.css"
          }
         ]
        }
       },
       {
        "result": {
         "format": "{{URL}} (expiration not specified)",
         "args": [
          {
           "type": "URL",
           "key": "URL",
           "value": "https://growup.vn/frontend/css/jbaa.css"
          }
         ]
        }
       },
       {
        "result": {
         "format": "{{URL}} (expiration not specified)",
         "args": [
          {
           "type": "URL",
           "key": "URL",
           "value": "https://growup.vn/frontend/css/less-common.min.css"
          }
         ]
        }
       },
       {
        "result": {
         "format": "{{URL}} (expiration not specified)",
         "args": [
          {
           "type": "URL",
           "key": "URL",
           "value": "https://growup.vn/frontend/css/less-default.min.css"
          }
         ]
        }
       },
       {
        "result": {
         "format": "{{URL}} (expiration not specified)",
         "args": [
          {
           "type": "URL",
           "key": "URL",
           "value": "https://growup.vn/frontend/css/less-smart-phone.min.css"
          }
         ]
        }
       },
       {
        "result": {
         "format": "{{URL}} (expiration not specified)",
         "args": [
          {
           "type": "URL",
           "key": "URL",
           "value": "https://growup.vn/frontend/css/style.css"
          }
         ]
        }
       },
       {
        "result": {
         "format": "{{URL}} (expiration not specified)",
         "args": [
          {
           "type": "URL",
           "key": "URL",
           "value": "https://growup.vn/frontend/img/footer-bg.png"
          }
         ]
        }
       },
       {
        "result": {
         "format": "{{URL}} (expiration not specified)",
         "args": [
          {
           "type": "URL",
           "key": "URL",
           "value": "https://growup.vn/frontend/img/growup-logo-footer.png"
          }
         ]
        }
       },
       {
        "result": {
         "format": "{{URL}} (expiration not specified)",
         "args": [
          {
           "type": "URL",
           "key": "URL",
           "value": "https://growup.vn/frontend/img/growup-logo.png"
          }
         ]
        }
       },
       {
        "result": {
         "format": "{{URL}} (expiration not specified)",
         "args": [
          {
           "type": "URL",
           "key": "URL",
           "value": "https://growup.vn/frontend/img/i-arrow.png"
          }
         ]
        }
       },
       {
        "result": {
         "format": "{{URL}} (expiration not specified)",
         "args": [
          {
           "type": "URL",
           "key": "URL",
           "value": "https://growup.vn/frontend/img/i-email-sp.png"
          }
         ]
        }
       },
       {
        "result": {
         "format": "{{URL}} (expiration not specified)",
         "args": [
          {
           "type": "URL",
           "key": "URL",
           "value": "https://growup.vn/frontend/img/i-email.png"
          }
         ]
        }
       },
       {
        "result": {
         "format": "{{URL}} (expiration not specified)",
         "args": [
          {
           "type": "URL",
           "key": "URL",
           "value": "https://growup.vn/frontend/img/i-google-plus.png"
          }
         ]
        }
       },
       {
        "result": {
         "format": "{{URL}} (expiration not specified)",
         "args": [
          {
           "type": "URL",
           "key": "URL",
           "value": "https://growup.vn/frontend/img/i-map.png"
          }
         ]
        }
       },
       {
        "result": {
         "format": "{{URL}} (expiration not specified)",
         "args": [
          {
           "type": "URL",
           "key": "URL",
           "value": "https://growup.vn/frontend/img/i-tell.png"
          }
         ]
        }
       },
       {
        "result": {
         "format": "{{URL}} (expiration not specified)",
         "args": [
          {
           "type": "URL",
           "key": "URL",
           "value": "https://growup.vn/frontend/img/i-youtube.png"
          }
         ]
        }
       },
       {
        "result": {
         "format": "{{URL}} (expiration not specified)",
         "args": [
          {
           "type": "URL",
           "key": "URL",
           "value": "https://growup.vn/frontend/img/i_top_sprites.png"
          }
         ]
        }
       },
       {
        "result": {
         "format": "{{URL}} (expiration not specified)",
         "args": [
          {
           "type": "URL",
           "key": "URL",
           "value": "https://growup.vn/frontend/img/skype.png"
          }
         ]
        }
       },
       {
        "result": {
         "format": "{{URL}} (expiration not specified)",
         "args": [
          {
           "type": "URL",
           "key": "URL",
           "value": "https://growup.vn/frontend/img/social-facebook.png"
          }
         ]
        }
       },
       {
        "result": {
         "format": "{{URL}} (expiration not specified)",
         "args": [
          {
           "type": "URL",
           "key": "URL",
           "value": "https://growup.vn/frontend/js/bootstrap.min.js"
          }
         ]
        }
       },
       {
        "result": {
         "format": "{{URL}} (expiration not specified)",
         "args": [
          {
           "type": "URL",
           "key": "URL",
           "value": "https://growup.vn/frontend/js/function.js"
          }
         ]
        }
       },
       {
        "result": {
         "format": "{{URL}} (expiration not specified)",
         "args": [
          {
           "type": "URL",
           "key": "URL",
           "value": "https://growup.vn/frontend/js/jquery-1.11.3.min.js"
          }
         ]
        }
       },
       {
        "result": {
         "format": "{{URL}} (expiration not specified)",
         "args": [
          {
           "type": "URL",
           "key": "URL",
           "value": "https://growup.vn/uploads/IMG_0815.JPG"
          }
         ]
        }
       },
       {
        "result": {
         "format": "{{URL}} (expiration not specified)",
         "args": [
          {
           "type": "URL",
           "key": "URL",
           "value": "https://growup.vn/uploads/IMG_3611.JPG"
          }
         ]
        }
       },
       {
        "result": {
         "format": "{{URL}} (expiration not specified)",
         "args": [
          {
           "type": "URL",
           "key": "URL",
           "value": "https://growup.vn/uploads/IMG_4993.JPG"
          }
         ]
        }
       },
       {
        "result": {
         "format": "{{URL}} (expiration not specified)",
         "args": [
          {
           "type": "URL",
           "key": "URL",
           "value": "https://growup.vn/uploads/IMG_9249.JPG"
          }
         ]
        }
       },
       {
        "result": {
         "format": "{{URL}} (expiration not specified)",
         "args": [
          {
           "type": "URL",
           "key": "URL",
           "value": "https://growup.vn/uploads/banners/banner-news.jpg"
          }
         ]
        }
       },
       {
        "result": {
         "format": "{{URL}} ({{LIFETIME}})",
         "args": [
          {
           "type": "URL",
           "key": "URL",
           "value": "https://www.googletagmanager.com/gtag/js?id=UA-125804458-1"
          },
          {
           "type": "DURATION",
           "key": "LIFETIME",
           "value": "15 minutes"
          }
         ]
        }
       },
       {
        "result": {
         "format": "{{URL}} ({{LIFETIME}})",
         "args": [
          {
           "type": "URL",
           "key": "URL",
           "value": "https://connect.facebook.net/en_US/sdk.js"
          },
          {
           "type": "DURATION",
           "key": "LIFETIME",
           "value": "20 minutes"
          }
         ]
        }
       },
       {
        "result": {
         "format": "{{URL}} ({{LIFETIME}})",
         "args": [
          {
           "type": "URL",
           "key": "URL",
           "value": "https://www.google-analytics.com/analytics.js"
          },
          {
           "type": "DURATION",
           "key": "LIFETIME",
           "value": "2 hours"
          }
         ]
        }
       }
      ]
     }
    ]
   },
   "MainResourceServerResponseTime": {
    "localizedRuleName": "Reduce server response time",
    "ruleImpact": 0.0,
    "groups": [
     "SPEED"
    ],
    "summary": {
     "format": "Your server responded quickly. Learn more about {{BEGIN_LINK}}server response time optimization{{END_LINK}}.",
     "args": [
      {
       "type": "HYPERLINK",
       "key": "LINK",
       "value": "https://developers.google.com/speed/docs/insights/Server"
      }
     ]
    }
   },
   "MinifyCss": {
    "localizedRuleName": "Minify CSS",
    "ruleImpact": 0.9264,
    "groups": [
     "SPEED"
    ],
    "summary": {
     "format": "Compacting CSS code can save many bytes of data and speed up download and parse times."
    },
    "urlBlocks": [
     {
      "header": {
       "format": "{{BEGIN_LINK}}Minify CSS{{END_LINK}} for the following resources to reduce their size by {{SIZE_IN_BYTES}} ({{PERCENTAGE}} reduction).",
       "args": [
        {
         "type": "HYPERLINK",
         "key": "LINK",
         "value": "https://developers.google.com/speed/docs/insights/MinifyResources"
        },
        {
         "type": "BYTES",
         "key": "SIZE_IN_BYTES",
         "value": "9KiB"
        },
        {
         "type": "PERCENTAGE",
         "key": "PERCENTAGE",
         "value": "16%"
        }
       ]
      },
      "urls": [
       {
        "result": {
         "format": "Minifying {{URL}} could save {{SIZE_IN_BYTES}} ({{PERCENTAGE}} reduction).",
         "args": [
          {
           "type": "URL",
           "key": "URL",
           "value": "https://growup.vn/frontend/css/common.css"
          },
          {
           "type": "BYTES",
           "key": "SIZE_IN_BYTES",
           "value": "5.2KiB"
          },
          {
           "type": "PERCENTAGE",
           "key": "PERCENTAGE",
           "value": "15%"
          }
         ]
        }
       },
       {
        "result": {
         "format": "Minifying {{URL}} could save {{SIZE_IN_BYTES}} ({{PERCENTAGE}} reduction).",
         "args": [
          {
           "type": "URL",
           "key": "URL",
           "value": "https://growup.vn/frontend/css/jbaa.css"
          },
          {
           "type": "BYTES",
           "key": "SIZE_IN_BYTES",
           "value": "3KiB"
          },
          {
           "type": "PERCENTAGE",
           "key": "PERCENTAGE",
           "value": "16%"
          }
         ]
        }
       },
       {
        "result": {
         "format": "Minifying {{URL}} could save {{SIZE_IN_BYTES}} ({{PERCENTAGE}} reduction).",
         "args": [
          {
           "type": "URL",
           "key": "URL",
           "value": "https://growup.vn/frontend/css/style.css"
          },
          {
           "type": "BYTES",
           "key": "SIZE_IN_BYTES",
           "value": "878B"
          },
          {
           "type": "PERCENTAGE",
           "key": "PERCENTAGE",
           "value": "29%"
          }
         ]
        }
       }
      ]
     }
    ]
   },
   "MinifyHTML": {
    "localizedRuleName": "Minify HTML",
    "ruleImpact": 0.0,
    "groups": [
     "SPEED"
    ],
    "summary": {
     "format": "Your HTML is minified. Learn more about {{BEGIN_LINK}}minifying HTML{{END_LINK}}.",
     "args": [
      {
       "type": "HYPERLINK",
       "key": "LINK",
       "value": "https://developers.google.com/speed/docs/insights/MinifyResources"
      }
     ]
    }
   },
   "MinifyJavaScript": {
    "localizedRuleName": "Minify JavaScript",
    "ruleImpact": 0.0,
    "groups": [
     "SPEED"
    ],
    "summary": {
     "format": "Your JavaScript content is minified. Learn more about {{BEGIN_LINK}}minifying JavaScript{{END_LINK}}.",
     "args": [
      {
       "type": "HYPERLINK",
       "key": "LINK",
       "value": "https://developers.google.com/speed/docs/insights/MinifyResources"
      }
     ]
    }
   },
   "MinimizeRenderBlockingResources": {
    "localizedRuleName": "Eliminate render-blocking JavaScript and CSS in above-the-fold content",
    "ruleImpact": 6.0,
    "groups": [
     "SPEED"
    ],
    "summary": {
     "format": "Your page has {{NUM_CSS}} blocking CSS resources. This causes a delay in rendering your page.",
     "args": [
      {
       "type": "INT_LITERAL",
       "key": "NUM_CSS",
       "value": "1"
      }
     ]
    },
    "urlBlocks": [
     {
      "header": {
       "format": "None of the above-the-fold content on your page could be rendered without waiting for the following resources to load. Try to defer or asynchronously load blocking resources, or inline the critical portions of those resources directly in the HTML."
      }
     },
     {
      "header": {
       "format": "{{BEGIN_LINK}}Optimize CSS Delivery{{END_LINK}} of the following:",
       "args": [
        {
         "type": "HYPERLINK",
         "key": "LINK",
         "value": "https://developers.google.com/speed/docs/insights/OptimizeCSSDelivery"
        }
       ]
      },
      "urls": [
       {
        "result": {
         "format": "{{URL}}",
         "args": [
          {
           "type": "URL",
           "key": "URL",
           "value": "https://growup.vn/frontend/css/bootstrap.min.css"
          }
         ]
        }
       }
      ]
     }
    ]
   },
   "OptimizeImages": {
    "localizedRuleName": "Optimize images",
    "ruleImpact": 821.3771999999998,
    "groups": [
     "SPEED"
    ],
    "summary": {
     "format": "Properly formatting and compressing images can save many bytes of data."
    },
    "urlBlocks": [
     {
      "header": {
       "format": "{{BEGIN_LINK}}Optimize the following images{{END_LINK}} to reduce their size by {{SIZE_IN_BYTES}} ({{PERCENTAGE}} reduction).",
       "args": [
        {
         "type": "HYPERLINK",
         "key": "LINK",
         "value": "https://developers.google.com/speed/docs/insights/OptimizeImages"
        },
        {
         "type": "BYTES",
         "key": "SIZE_IN_BYTES",
         "value": "7.8MiB"
        },
        {
         "type": "PERCENTAGE",
         "key": "PERCENTAGE",
         "value": "91%"
        }
       ]
      },
      "urls": [
       {
        "result": {
         "format": "Compressing and resizing {{URL}} could save {{SIZE_IN_BYTES}} ({{PERCENTAGE}} reduction).",
         "args": [
          {
           "type": "URL",
           "key": "URL",
           "value": "https://growup.vn/uploads/IMG_9249.JPG"
          },
          {
           "type": "BYTES",
           "key": "SIZE_IN_BYTES",
           "value": "2.3MiB"
          },
          {
           "type": "PERCENTAGE",
           "key": "PERCENTAGE",
           "value": "94%"
          }
         ]
        }
       },
       {
        "result": {
         "format": "Compressing and resizing {{URL}} could save {{SIZE_IN_BYTES}} ({{PERCENTAGE}} reduction).",
         "args": [
          {
           "type": "URL",
           "key": "URL",
           "value": "https://growup.vn/uploads/IMG_4993.JPG"
          },
          {
           "type": "BYTES",
           "key": "SIZE_IN_BYTES",
           "value": "2MiB"
          },
          {
           "type": "PERCENTAGE",
           "key": "PERCENTAGE",
           "value": "93%"
          }
         ]
        }
       },
       {
        "result": {
         "format": "Compressing and resizing {{URL}} could save {{SIZE_IN_BYTES}} ({{PERCENTAGE}} reduction).",
         "args": [
          {
           "type": "URL",
           "key": "URL",
           "value": "https://growup.vn/uploads/IMG_0815.JPG"
          },
          {
           "type": "BYTES",
           "key": "SIZE_IN_BYTES",
           "value": "1.7MiB"
          },
          {
           "type": "PERCENTAGE",
           "key": "PERCENTAGE",
           "value": "92%"
          }
         ]
        }
       },
       {
        "result": {
         "format": "Compressing and resizing {{URL}} could save {{SIZE_IN_BYTES}} ({{PERCENTAGE}} reduction).",
         "args": [
          {
           "type": "URL",
           "key": "URL",
           "value": "https://growup.vn/uploads/IMG_3611.JPG"
          },
          {
           "type": "BYTES",
           "key": "SIZE_IN_BYTES",
           "value": "1.5MiB"
          },
          {
           "type": "PERCENTAGE",
           "key": "PERCENTAGE",
           "value": "95%"
          }
         ]
        }
       },
       {
        "result": {
         "format": "Compressing {{URL}} could save {{SIZE_IN_BYTES}} ({{PERCENTAGE}} reduction).",
         "args": [
          {
           "type": "URL",
           "key": "URL",
           "value": "https://growup.vn/uploads/banners/banner-news.jpg"
          },
          {
           "type": "BYTES",
           "key": "SIZE_IN_BYTES",
           "value": "169.2KiB"
          },
          {
           "type": "PERCENTAGE",
           "key": "PERCENTAGE",
           "value": "81%"
          }
         ]
        }
       },
       {
        "result": {
         "format": "Compressing {{URL}} could save {{SIZE_IN_BYTES}} ({{PERCENTAGE}} reduction).",
         "args": [
          {
           "type": "URL",
           "key": "URL",
           "value": "https://growup.vn/frontend/img/i-arrow.png"
          },
          {
           "type": "BYTES",
           "key": "SIZE_IN_BYTES",
           "value": "100.1KiB"
          },
          {
           "type": "PERCENTAGE",
           "key": "PERCENTAGE",
           "value": "99%"
          }
         ]
        }
       },
       {
        "result": {
         "format": "Compressing {{URL}} could save {{SIZE_IN_BYTES}} ({{PERCENTAGE}} reduction).",
         "args": [
          {
           "type": "URL",
           "key": "URL",
           "value": "https://growup.vn/frontend/img/footer-bg.png"
          },
          {
           "type": "BYTES",
           "key": "SIZE_IN_BYTES",
           "value": "21.3KiB"
          },
          {
           "type": "PERCENTAGE",
           "key": "PERCENTAGE",
           "value": "13%"
          }
         ]
        }
       },
       {
        "result": {
         "format": "Compressing and resizing {{URL}} could save {{SIZE_IN_BYTES}} ({{PERCENTAGE}} reduction).",
         "args": [
          {
           "type": "URL",
           "key": "URL",
           "value": "https://growup.vn/frontend/img/growup-logo.png"
          },
          {
           "type": "BYTES",
           "key": "SIZE_IN_BYTES",
           "value": "12.7KiB"
          },
          {
           "type": "PERCENTAGE",
           "key": "PERCENTAGE",
           "value": "79%"
          }
         ]
        }
       },
       {
        "result": {
         "format": "Compressing and resizing {{URL}} could save {{SIZE_IN_BYTES}} ({{PERCENTAGE}} reduction).",
         "args": [
          {
           "type": "URL",
           "key": "URL",
           "value": "https://growup.vn/frontend/img/growup-logo-footer.png"
          },
          {
           "type": "BYTES",
           "key": "SIZE_IN_BYTES",
           "value": "8.8KiB"
          },
          {
           "type": "PERCENTAGE",
           "key": "PERCENTAGE",
           "value": "81%"
          }
         ]
        }
       },
       {
        "result": {
         "format": "Compressing {{URL}} could save {{SIZE_IN_BYTES}} ({{PERCENTAGE}} reduction).",
         "args": [
          {
           "type": "URL",
           "key": "URL",
           "value": "https://growup.vn/frontend/img/i_top_sprites.png"
          },
          {
           "type": "BYTES",
           "key": "SIZE_IN_BYTES",
           "value": "7.9KiB"
          },
          {
           "type": "PERCENTAGE",
           "key": "PERCENTAGE",
           "value": "36%"
          }
         ]
        }
       },
       {
        "result": {
         "format": "Compressing {{URL}} could save {{SIZE_IN_BYTES}} ({{PERCENTAGE}} reduction).",
         "args": [
          {
           "type": "URL",
           "key": "URL",
           "value": "https://growup.vn/frontend/img/i-email-sp.png"
          },
          {
           "type": "BYTES",
           "key": "SIZE_IN_BYTES",
           "value": "1.1KiB"
          },
          {
           "type": "PERCENTAGE",
           "key": "PERCENTAGE",
           "value": "40%"
          }
         ]
        }
       },
       {
        "result": {
         "format": "Compressing {{URL}} could save {{SIZE_IN_BYTES}} ({{PERCENTAGE}} reduction).",
         "args": [
          {
           "type": "URL",
           "key": "URL",
           "value": "https://growup.vn/frontend/img/i-youtube.png"
          },
          {
           "type": "BYTES",
           "key": "SIZE_IN_BYTES",
           "value": "1,012B"
          },
          {
           "type": "PERCENTAGE",
           "key": "PERCENTAGE",
           "value": "57%"
          }
         ]
        }
       },
       {
        "result": {
         "format": "Compressing {{URL}} could save {{SIZE_IN_BYTES}} ({{PERCENTAGE}} reduction).",
         "args": [
          {
           "type": "URL",
           "key": "URL",
           "value": "https://growup.vn/frontend/img/i-email.png"
          },
          {
           "type": "BYTES",
           "key": "SIZE_IN_BYTES",
           "value": "1,007B"
          },
          {
           "type": "PERCENTAGE",
           "key": "PERCENTAGE",
           "value": "75%"
          }
         ]
        }
       },
       {
        "result": {
         "format": "Compressing {{URL}} could save {{SIZE_IN_BYTES}} ({{PERCENTAGE}} reduction).",
         "args": [
          {
           "type": "URL",
           "key": "URL",
           "value": "https://growup.vn/frontend/img/i-tell.png"
          },
          {
           "type": "BYTES",
           "key": "SIZE_IN_BYTES",
           "value": "1,003B"
          },
          {
           "type": "PERCENTAGE",
           "key": "PERCENTAGE",
           "value": "60%"
          }
         ]
        }
       },
       {
        "result": {
         "format": "Compressing {{URL}} could save {{SIZE_IN_BYTES}} ({{PERCENTAGE}} reduction).",
         "args": [
          {
           "type": "URL",
           "key": "URL",
           "value": "https://growup.vn/frontend/img/i-map.png"
          },
          {
           "type": "BYTES",
           "key": "SIZE_IN_BYTES",
           "value": "971B"
          },
          {
           "type": "PERCENTAGE",
           "key": "PERCENTAGE",
           "value": "62%"
          }
         ]
        }
       },
       {
        "result": {
         "format": "Compressing {{URL}} could save {{SIZE_IN_BYTES}} ({{PERCENTAGE}} reduction).",
         "args": [
          {
           "type": "URL",
           "key": "URL",
           "value": "https://growup.vn/frontend/img/i-google-plus.png"
          },
          {
           "type": "BYTES",
           "key": "SIZE_IN_BYTES",
           "value": "450B"
          },
          {
           "type": "PERCENTAGE",
           "key": "PERCENTAGE",
           "value": "16%"
          }
         ]
        }
       },
       {
        "result": {
         "format": "Compressing {{URL}} could save {{SIZE_IN_BYTES}} ({{PERCENTAGE}} reduction).",
         "args": [
          {
           "type": "URL",
           "key": "URL",
           "value": "https://growup.vn/frontend/img/skype.png"
          },
          {
           "type": "BYTES",
           "key": "SIZE_IN_BYTES",
           "value": "218B"
          },
          {
           "type": "PERCENTAGE",
           "key": "PERCENTAGE",
           "value": "15%"
          }
         ]
        }
       },
       {
        "result": {
         "format": "Compressing {{URL}} could save {{SIZE_IN_BYTES}} ({{PERCENTAGE}} reduction).",
         "args": [
          {
           "type": "URL",
           "key": "URL",
           "value": "https://growup.vn/frontend/img/social-facebook.png"
          },
          {
           "type": "BYTES",
           "key": "SIZE_IN_BYTES",
           "value": "140B"
          },
          {
           "type": "PERCENTAGE",
           "key": "PERCENTAGE",
           "value": "11%"
          }
         ]
        }
       }
      ]
     }
    ]
   },
   "PrioritizeVisibleContent": {
    "localizedRuleName": "Prioritize visible content",
    "ruleImpact": 0.0,
    "groups": [
     "SPEED"
    ],
    "summary": {
     "format": "You have the above-the-fold content properly prioritized. Learn more about {{BEGIN_LINK}}prioritizing visible content{{END_LINK}}.",
     "args": [
      {
       "type": "HYPERLINK",
       "key": "LINK",
       "value": "https://developers.google.com/speed/docs/insights/PrioritizeVisibleContent"
      }
     ]
    }
   }
  }
 },
 "version": {
  "major": 1,
  "minor": 15
 }
}
